<svg width="143" height="28" viewBox="0 0 143 28" fill="none" xmlns="http://www.w3.org/2000/svg">
<path d="M16.8959 12.6745V17.7901C16.8959 18.6622 17.6028 19.3692 18.4749 19.3692H25.0586C26.2054 19.3692 28.4241 17.6049 28.4241 15.1007C28.4241 12.5965 26.2054 11.4013 25.0586 11.4013C25.0586 6.84812 21.3191 6.0892 19.4494 6.27889C18.608 4.57146 16.6734 0.96208 12.1575 1.72574C8.11884 2.40868 7.10919 6.18403 7.10919 7.98632C5.19608 7.98632 1.5 9.40918 1.5 13.9623C1.5 17.6048 4.61249 19.3692 6.54827 19.3692C6.54827 19.3692 8.3866 19.3692 10.603 19.3692C11.4751 19.3692 12.1821 20.0762 12.1821 20.9482V26.0966" stroke="#10C684" stroke-width="2"/>
<path d="M9.19727 23.1367L12.1579 26.0974L15.1188 23.1365" stroke="#10C684" stroke-width="2" stroke-linecap="round"/>
<path d="M13.9355 15.6367L16.8962 12.6761L19.857 15.6369" stroke="#10C684" stroke-width="2" stroke-linecap="round"/>
<path d="M47.2901 17.699V20H37.915V6.49833H47.119V8.79932H40.5393V12.0511H46.2252V14.181H40.5393V17.699H47.2901ZM49.0508 20V6.49833H51.6751V17.699H58.559V20H49.0508ZM59.8708 20V6.51734H62.4951V12.9259L68.162 6.49833H71.0525L65.88 12.4885L71.3758 20H68.4282L64.2256 14.162L62.4951 15.9685V20H59.8708ZM83.6594 6.49833V20H81.0541V14.238H74.9308V20H72.3066V6.49833H74.9308V11.956H81.0541V6.49833H83.6594ZM89.6562 13.1541C89.6562 12.33 89.802 11.5187 90.0936 10.72C90.3979 9.90861 90.8353 9.18598 91.4057 8.5521C91.9762 7.91822 92.6735 7.40478 93.4976 7.01177C94.3216 6.61877 95.2597 6.42226 96.312 6.42226C97.5544 6.42226 98.6257 6.69483 99.5258 7.23997C100.439 7.78511 101.117 8.49505 101.561 9.36981L99.5448 10.758C99.3673 10.3777 99.1518 10.0607 98.8982 9.80719C98.6447 9.54096 98.3721 9.33178 98.0805 9.17965C97.7889 9.02752 97.4847 8.91976 97.1677 8.85637C96.8508 8.7803 96.5402 8.74227 96.2359 8.74227C95.5767 8.74227 94.9999 8.87538 94.5054 9.14161C94.0237 9.40784 93.618 9.75648 93.2884 10.1875C92.9714 10.6059 92.7306 11.0876 92.5657 11.6328C92.4009 12.1652 92.3185 12.6977 92.3185 13.2301C92.3185 13.826 92.4136 14.4028 92.6038 14.9606C92.7939 15.5058 93.0602 15.9875 93.4025 16.4059C93.7574 16.8243 94.1758 17.1602 94.6576 17.4138C95.152 17.6673 95.6908 17.7941 96.274 17.7941C96.5782 17.7941 96.8952 17.7561 97.2248 17.68C97.5544 17.6039 97.865 17.4835 98.1566 17.3187C98.4608 17.1539 98.7398 16.9447 98.9933 16.6911C99.2469 16.4249 99.4497 16.108 99.6018 15.7403L101.751 16.9764C101.535 17.4835 101.225 17.9335 100.819 18.3266C100.426 18.7069 99.9758 19.0302 99.4687 19.2964C98.9743 19.5626 98.4418 19.7655 97.8713 19.9049C97.3008 20.0444 96.743 20.1141 96.1979 20.1141C95.2344 20.1141 94.3533 19.9113 93.5546 19.5056C92.7559 19.0999 92.065 18.5738 91.4818 17.9272C90.9113 17.268 90.4613 16.5263 90.1316 15.7023C89.8147 14.8656 89.6562 14.0162 89.6562 13.1541ZM102.959 6.118H105.507V16.8052C105.507 17.1729 105.596 17.4581 105.774 17.661C105.951 17.8638 106.205 17.9652 106.534 17.9652C106.686 17.9652 106.851 17.9399 107.029 17.8892C107.219 17.8385 107.396 17.7751 107.561 17.699L107.903 19.6387C107.561 19.8035 107.162 19.9303 106.705 20.019C106.249 20.1078 105.837 20.1521 105.469 20.1521C104.671 20.1521 104.049 19.943 103.606 19.5246C103.175 19.0935 102.959 18.485 102.959 17.699V6.118ZM113.33 20.1902C112.519 20.1902 111.79 20.0507 111.143 19.7718C110.497 19.4929 109.945 19.1189 109.489 18.6498C109.045 18.1681 108.703 17.6166 108.462 16.9954C108.221 16.3742 108.101 15.7213 108.101 15.0367C108.101 14.3394 108.221 13.6802 108.462 13.059C108.703 12.4378 109.045 11.8927 109.489 11.4236C109.945 10.9418 110.497 10.5615 111.143 10.2826C111.79 10.0037 112.519 9.86424 113.33 9.86424C114.142 9.86424 114.864 10.0037 115.498 10.2826C116.145 10.5615 116.69 10.9418 117.134 11.4236C117.59 11.8927 117.939 12.4378 118.18 13.059C118.42 13.6802 118.541 14.3394 118.541 15.0367C118.541 15.7213 118.42 16.3742 118.18 16.9954C117.939 17.6166 117.596 18.1681 117.153 18.6498C116.709 19.1189 116.164 19.4929 115.517 19.7718C114.871 20.0507 114.142 20.1902 113.33 20.1902ZM110.725 15.0367C110.725 15.4804 110.788 15.8861 110.915 16.2538C111.055 16.6087 111.239 16.9193 111.467 17.1856C111.708 17.4518 111.987 17.661 112.303 17.8131C112.62 17.9526 112.963 18.0223 113.33 18.0223C113.698 18.0223 114.04 17.9526 114.357 17.8131C114.674 17.661 114.947 17.4518 115.175 17.1856C115.416 16.9193 115.6 16.6024 115.726 16.2347C115.866 15.8671 115.936 15.4614 115.936 15.0177C115.936 14.5867 115.866 14.1873 115.726 13.8197C115.6 13.452 115.416 13.1351 115.175 12.8688C114.947 12.6026 114.674 12.3998 114.357 12.2603C114.04 12.1082 113.698 12.0321 113.33 12.0321C112.963 12.0321 112.62 12.1082 112.303 12.2603C111.987 12.4124 111.708 12.6216 111.467 12.8879C111.239 13.1541 111.055 13.471 110.915 13.8387C110.788 14.2063 110.725 14.6057 110.725 15.0367ZM123.018 20.1902C121.991 20.1902 121.212 19.8605 120.679 19.2013C120.147 18.5421 119.88 17.5659 119.88 16.2728V10.0354H122.429V15.7213C122.429 17.2553 122.98 18.0223 124.083 18.0223C124.578 18.0223 125.053 17.8765 125.509 17.5849C125.978 17.2806 126.359 16.8243 126.65 16.2157V10.0354H129.199V17.0715C129.199 17.3377 129.243 17.5279 129.332 17.642C129.433 17.7561 129.592 17.8194 129.807 17.8321V20C129.554 20.0507 129.338 20.0824 129.161 20.0951C128.996 20.1078 128.844 20.1141 128.704 20.1141C128.248 20.1141 127.874 20.0127 127.582 19.8098C127.303 19.5943 127.138 19.3027 127.088 18.9351L127.031 18.1364C126.587 18.821 126.016 19.3344 125.319 19.6767C124.622 20.019 123.855 20.1902 123.018 20.1902ZM135.572 20.1902C134.888 20.1902 134.254 20.057 133.671 19.7908C133.087 19.5246 132.587 19.1569 132.168 18.6879C131.75 18.2188 131.42 17.6737 131.179 17.0525C130.951 16.4186 130.837 15.7403 130.837 15.0177C130.837 14.2951 130.945 13.6232 131.16 13.002C131.389 12.3807 131.699 11.8356 132.092 11.3665C132.485 10.8975 132.954 10.5298 133.499 10.2636C134.045 9.99735 134.64 9.86424 135.287 9.86424C136.022 9.86424 136.681 10.0417 137.265 10.3967C137.86 10.7517 138.323 11.2144 138.653 11.7849V6.118H141.201V17.0715C141.201 17.3377 141.245 17.5279 141.334 17.642C141.423 17.7561 141.575 17.8194 141.791 17.8321V20C141.347 20.0887 140.986 20.1331 140.707 20.1331C140.25 20.1331 139.876 20.019 139.585 19.7908C139.293 19.5626 139.128 19.2647 139.09 18.897L139.033 18.2695C138.666 18.9034 138.165 19.3851 137.531 19.7148C136.91 20.0317 136.257 20.1902 135.572 20.1902ZM136.238 18.0223C136.479 18.0223 136.726 17.9843 136.979 17.9082C137.233 17.8194 137.467 17.699 137.683 17.5469C137.899 17.3947 138.089 17.2173 138.253 17.0144C138.431 16.8116 138.564 16.5897 138.653 16.3488V13.9718C138.551 13.6929 138.406 13.4393 138.215 13.2111C138.038 12.9703 137.829 12.7674 137.588 12.6026C137.36 12.4251 137.112 12.2857 136.846 12.1842C136.593 12.0828 136.339 12.0321 136.086 12.0321C135.705 12.0321 135.35 12.1145 135.021 12.2793C134.704 12.4441 134.431 12.6723 134.203 12.9639C133.975 13.2428 133.797 13.5661 133.671 13.9338C133.544 14.3014 133.48 14.6817 133.48 15.0747C133.48 15.4931 133.55 15.8798 133.69 16.2347C133.829 16.5897 134.019 16.9003 134.26 17.1666C134.501 17.4328 134.786 17.642 135.116 17.7941C135.458 17.9462 135.832 18.0223 136.238 18.0223Z" fill="#3A3954"/>
</svg>
